{
    "breeds": [
        {
            "id": "abys",
            "name": "Abyssinian",
            "description": "The Abyssinian is easy to care for, and a joy to have in your home. They’re affectionate cats and love both people and other animals.",
            "wikipedia_url": "https://en.wikipedia.org/wiki/Abyssinian_(cat)"
        }
    ],
    "url": "https://cdn2.thecatapi.com/images/9x1zk_Qdr.jpg"
}
